PBLs/TEC498 - MI - Projeto de Circuitos Digitais/Problema 3/Códigos/PBL3.Circuito/simulation/qsim/Circuito.msim.vcd
$comment
	File created using the following command:
		vcd file Circuito.msim.vcd -direction
$end
$date
	Mon Jun 21 19:51:53 2021
$end
$version
	ModelSim Version 2020.1
$end
$timescale
	1ps
$end

$scope module mainCircuit_vlg_vec_tst $end
$var reg 1 ! clk $end
$var reg 3 " coin [2:0] $end
$var reg 1 # got_coin $end
$var reg 1 $ key_four $end
$var reg 1 % key_one $end
$var reg 1 & key_three $end
$var reg 1 ' key_two $end
$var wire 1 ( back_money $end
$var wire 1 ) d [7] $end
$var wire 1 * d [6] $end
$var wire 1 + d [5] $end
$var wire 1 , d [4] $end
$var wire 1 - d [3] $end
$var wire 1 . d [2] $end
$var wire 1 / d [1] $end
$var wire 1 0 d [0] $end
$var wire 1 1 enable_d [0] $end
$var wire 1 2 enable_d [1] $end
$var wire 1 3 enable_d [2] $end
$var wire 1 4 enable_d [3] $end
$var wire 1 5 release_product $end

$scope module i1 $end
$var wire 1 6 gnd $end
$var wire 1 7 vcc $end
$var wire 1 8 unknown $end
$var tri1 1 9 devclrn $end
$var tri1 1 : devpor $end
$var tri1 1 ; devoe $end
$var wire 1 < clk~combout $end
$var wire 1 = got_coin~combout $end
$var wire 1 > comb_5|next_state[0]~2_combout $end
$var wire 1 ? comb_5|next_state[0]~1_combout $end
$var wire 1 @ comb_5|Mux2~10_combout $end
$var wire 1 A comb_6|back_money~regout $end
$var wire 1 B key_two~combout $end
$var wire 1 C key_four~combout $end
$var wire 1 D key_three~combout $end
$var wire 1 E comb_8|apt~0_combout $end
$var wire 1 F key_one~combout $end
$var wire 1 G comb_7|start_time~2_combout $end
$var wire 1 H comb_7|time_max_id~regout $end
$var wire 1 I comb_9|always0~0_combout $end
$var wire 1 J comb_9|state.wait_id~regout $end
$var wire 1 K comb_9|state.wait_button_down~regout $end
$var wire 1 L comb_9|state.add_row~regout $end
$var wire 1 M comb_9|state.add_col~regout $end
$var wire 1 N comb_9|id_typed~regout $end
$var wire 1 O comb_7|counter~2_combout $end
$var wire 1 P comb_7|Add0~1_combout $end
$var wire 1 Q comb_7|Add0~0_combout $end
$var wire 1 R comb_7|start_time_ex~regout $end
$var wire 1 S comb_7|start_time~regout $end
$var wire 1 T comb_7|time_max_exb~0_combout $end
$var wire 1 U comb_7|start_time_ex~0 $end
$var wire 1 V comb_7|time_max_exb~regout $end
$var wire 1 W comb_4|Mux2~0_combout $end
$var wire 1 X comb_4|col[0]~0_combout $end
$var wire 1 Y comb_4|col[0]~1_combout $end
$var wire 1 Z comb_4|row[0]~0_combout $end
$var wire 1 [ comb_4|Mux3~0_combout $end
$var wire 1 \ comb_11|WideOr1~0_combout $end
$var wire 1 ] comb_11|WideOr2~0_combout $end
$var wire 1 ^ comb_11|WideOr0~0 $end
$var wire 1 _ comb_12|Decoder1~1 $end
$var wire 1 ` comb_11|id_valid~regout $end
$var wire 1 a comb_6|state.error1~regout $end
$var wire 1 b comb_6|state_now[0]~0_combout $end
$var wire 1 c comb_6|Selector0~0_combout $end
$var wire 1 d comb_6|state.zzz~regout $end
$var wire 1 e comb_6|state.validate_id~regout $end
$var wire 1 f comb_6|state.validate_coin~regout $end
$var wire 1 g comb_10|WideOr0~0_combout $end
$var wire 1 h comb_10|state.penny_invalid~regout $end
$var wire 1 i comb_10|WideOr18~0_combout $end
$var wire 1 j comb_6|Equal0~1_combout $end
$var wire 1 k comb_10|Decoder0~6_combout $end
$var wire 1 l comb_10|state.penny0_25~regout $end
$var wire 1 m comb_10|Selector13~0_combout $end
$var wire 1 n comb_10|Decoder0~3_combout $end
$var wire 1 o comb_10|state.penny1_75~regout $end
$var wire 1 p comb_10|Selector13~1_combout $end
$var wire 1 q comb_6|Equal0~2 $end
$var wire 1 r comb_6|Selector3~0 $end
$var wire 1 s comb_6|state.all_ok~regout $end
$var wire 1 t comb_6|release_product~regout $end
$var wire 1 u comb_3|comb~0_combout $end
$var wire 1 v comb_3|always0~0_combout $end
$var wire 1 w comb_3|rst~combout $end
$var wire 1 x comb_10|WideOr20 $end
$var wire 1 y comb_10|WideOr19~combout $end
$var wire 1 z comb_5|Mux2~8_combout $end
$var wire 1 { comb_5|Mux2~9_combout $end
$var wire 1 | comb_5|next_state[0]~3_combout $end
$var wire 1 } comb_10|Decoder0~2_combout $end
$var wire 1 ~ comb_10|state.penny1_50~regout $end
$var wire 1 !! comb_10|Decoder0~1_combout $end
$var wire 1 "! comb_10|state.penny1~regout $end
$var wire 1 #! comb_10|Decoder0~8_combout $end
$var wire 1 $! comb_10|state.penny0~regout $end
$var wire 1 %! comb_5|next_state[3]~0_combout $end
$var wire 1 &! comb_10|WideOr16~combout $end
$var wire 1 '! comb_5|Mux3~0_combout $end
$var wire 1 (! comb_10|Decoder0~5_combout $end
$var wire 1 )! comb_10|state.penny0_75~regout $end
$var wire 1 *! comb_5|next_state[3]~4_combout $end
$var wire 1 +! comb_5|next_state[3]~5_combout $end
$var wire 1 ,! comb_5|next_state[3]~8_combout $end
$var wire 1 -! comb_5|next_state[3]~6_combout $end
$var wire 1 .! comb_5|next_state[3]~7_combout $end
$var wire 1 /! comb_10|Decoder0~0_combout $end
$var wire 1 0! comb_10|state.penny2~regout $end
$var wire 1 1! comb_10|WideOr18~combout $end
$var wire 1 2! comb_5|Mux1~0_combout $end
$var wire 1 3! comb_5|Mux1~1_combout $end
$var wire 1 4! comb_10|Decoder0~7_combout $end
$var wire 1 5! comb_10|state.penny0_50~regout $end
$var wire 1 6! comb_10|WideOr20~0_combout $end
$var wire 1 7! comb_10|state.wait_pulse_down~regout $end
$var wire 1 8! comb_10|Decoder0~4_combout $end
$var wire 1 9! comb_10|state.penny1_25~regout $end
$var wire 1 :! comb_10|WideOr19~0_combout $end
$var wire 1 ;! comb_6|Equal0~0_combout $end
$var wire 1 <! comb_6|state.error2~regout $end
$var wire 1 =! comb_12|Mux25~0_combout $end
$var wire 1 >! comb_12|Decoder5~2_combout $end
$var wire 1 ?! comb_12|Decoder5~3_combout $end
$var wire 1 @! comb_12|Mux26~0_combout $end
$var wire 1 A! comb_12|WideOr10~0_combout $end
$var wire 1 B! comb_12|Mux22~0_combout $end
$var wire 1 C! comb_12|Mux38~0_combout $end
$var wire 1 D! comb_12|Mux3~0_combout $end
$var wire 1 E! comb_12|Mux0~2_combout $end
$var wire 1 F! comb_12|Mux3~1_combout $end
$var wire 1 G! comb_12|Mux30~0_combout $end
$var wire 1 H! comb_12|Mux24~3_combout $end
$var wire 1 I! comb_12|Mux30~1_combout $end
$var wire 1 J! comb_12|WideOr1~0 $end
$var wire 1 K! comb_12|Mux17~5_combout $end
$var wire 1 L! comb_12|Mux17~4_combout $end
$var wire 1 M! comb_12|Mux38~1_combout $end
$var wire 1 N! comb_12|Mux24~2_combout $end
$var wire 1 O! comb_12|WideOr4~0_combout $end
$var wire 1 P! comb_12|Mux16~0_combout $end
$var wire 1 Q! comb_12|WideOr8~0_combout $end
$var wire 1 R! comb_12|Mux29~0_combout $end
$var wire 1 S! comb_12|Mux37~0_combout $end
$var wire 1 T! comb_12|Mux23~0_combout $end
$var wire 1 U! comb_12|Mux26~1_combout $end
$var wire 1 V! comb_12|WideOr7~0_combout $end
$var wire 1 W! comb_12|Mux26~2_combout $end
$var wire 1 X! comb_12|Mux34~0_combout $end
$var wire 1 Y! comb_12|Mux15~0_combout $end
$var wire 1 Z! comb_12|Mux15~1_combout $end
$var wire 1 [! comb_12|Mux36~0_combout $end
$var wire 1 \! comb_12|WideOr11~0_combout $end
$var wire 1 ]! comb_12|WideOr6~0_combout $end
$var wire 1 ^! comb_12|Mux9~0_combout $end
$var wire 1 _! comb_12|Mux9~1_combout $end
$var wire 1 `! comb_12|Mux35~0_combout $end
$var wire 1 a! comb_12|Mux7~10_combout $end
$var wire 1 b! comb_12|Mux7~8_combout $end
$var wire 1 c! comb_12|WideOr5~0_combout $end
$var wire 1 d! comb_12|Mux7~9_combout $end
$var wire 1 e! comb_12|Mux7~11_combout $end
$var wire 1 f! comb_12|Mux16~1_combout $end
$var wire 1 g! comb_12|Mux34~1_combout $end
$var wire 1 h! comb_12|Mux34~2_combout $end
$var wire 1 i! comb_12|Mux20~0_combout $end
$var wire 1 j! comb_12|Mux20~1_combout $end
$var wire 1 k! comb_12|Mux4~0_combout $end
$var wire 1 l! comb_12|Mux4~1_combout $end
$var wire 1 m! comb_12|WideOr0~0_combout $end
$var wire 1 n! comb_12|Mux12~0_combout $end
$var wire 1 o! comb_12|Mux33~0_combout $end
$var wire 1 p! comb_12|Mux1~1_combout $end
$var wire 1 q! comb_12|Mux1~0_combout $end
$var wire 1 r! comb_12|Mux1~2_combout $end
$var wire 1 s! comb_12|Mux19~0_combout $end
$var wire 1 t! comb_12|Decoder1~0_combout $end
$var wire 1 u! comb_12|Mux11~0_combout $end
$var wire 1 v! comb_12|Mux11~1_combout $end
$var wire 1 w! comb_12|Mux32~0_combout $end
$var wire 1 x! comb_12|Mux31~1_combout $end
$var wire 1 y! comb_12|Mux0~3_combout $end
$var wire 1 z! comb_12|Mux31~0_combout $end
$var wire 1 {! comb_12|d [7] $end
$var wire 1 |! comb_12|d [6] $end
$var wire 1 }! comb_12|d [5] $end
$var wire 1 ~! comb_12|d [4] $end
$var wire 1 !" comb_12|d [3] $end
$var wire 1 "" comb_12|d [2] $end
$var wire 1 #" comb_12|d [1] $end
$var wire 1 $" comb_12|d [0] $end
$var wire 1 %" comb_11|val_product [3] $end
$var wire 1 &" comb_11|val_product [2] $end
$var wire 1 '" comb_11|val_product [1] $end
$var wire 1 (" comb_11|val_product [0] $end
$var wire 1 )" comb_12|enable_d [0] $end
$var wire 1 *" comb_12|enable_d [1] $end
$var wire 1 +" comb_12|enable_d [2] $end
$var wire 1 ," comb_12|enable_d [3] $end
$var wire 1 -" comb_5|next_state [3] $end
$var wire 1 ." comb_5|next_state [2] $end
$var wire 1 /" comb_5|next_state [1] $end
$var wire 1 0" comb_5|next_state [0] $end
$var wire 1 1" comb_12|interator_d [1] $end
$var wire 1 2" comb_12|interator_d [0] $end
$var wire 1 3" comb_6|state_now [0] $end
$var wire 1 4" comb_6|state_now [1] $end
$var wire 1 5" comb_6|state_now [2] $end
$var wire 1 6" coin~combout [2] $end
$var wire 1 7" coin~combout [1] $end
$var wire 1 8" coin~combout [0] $end
$var wire 1 9" comb_4|col [1] $end
$var wire 1 :" comb_4|col [0] $end
$var wire 1 ;" comb_7|counter [24] $end
$var wire 1 <" comb_7|counter [23] $end
$var wire 1 =" comb_7|counter [22] $end
$var wire 1 >" comb_7|counter [21] $end
$var wire 1 ?" comb_7|counter [20] $end
$var wire 1 @" comb_7|counter [19] $end
$var wire 1 A" comb_7|counter [18] $end
$var wire 1 B" comb_7|counter [17] $end
$var wire 1 C" comb_7|counter [16] $end
$var wire 1 D" comb_7|counter [15] $end
$var wire 1 E" comb_7|counter [14] $end
$var wire 1 F" comb_7|counter [13] $end
$var wire 1 G" comb_7|counter [12] $end
$var wire 1 H" comb_7|counter [11] $end
$var wire 1 I" comb_7|counter [10] $end
$var wire 1 J" comb_7|counter [9] $end
$var wire 1 K" comb_7|counter [8] $end
$var wire 1 L" comb_7|counter [7] $end
$var wire 1 M" comb_7|counter [6] $end
$var wire 1 N" comb_7|counter [5] $end
$var wire 1 O" comb_7|counter [4] $end
$var wire 1 P" comb_7|counter [3] $end
$var wire 1 Q" comb_7|counter [2] $end
$var wire 1 R" comb_7|counter [1] $end
$var wire 1 S" comb_7|counter [0] $end
$var wire 1 T" comb_4|row [1] $end
$var wire 1 U" comb_4|row [0] $end
$var wire 1 V" comb_12|d2 [7] $end
$var wire 1 W" comb_12|d2 [6] $end
$var wire 1 X" comb_12|d2 [5] $end
$var wire 1 Y" comb_12|d2 [4] $end
$var wire 1 Z" comb_12|d2 [3] $end
$var wire 1 [" comb_12|d2 [2] $end
$var wire 1 \" comb_12|d2 [1] $end
$var wire 1 ]" comb_12|d2 [0] $end
$upscope $end
$upscope $end
$enddefinitions $end
#0
$dumpvars
0!
b0 "
0#
0$
0%
0&
0'
0(
00
0/
0.
0-
0,
0+
0*
0)
04
03
02
01
05
06
17
x8
19
1:
1;
0<
0=
0>
0?
0@
0A
0B
0C
0D
1E
0F
0G
0H
0I
0J
0K
0L
0M
0N
1O
0P
0Q
0R
0S
0T
0U
0V
0W
1X
0Y
0Z
1[
0\
0]
0^
0_
0`
0a
1b
1c
0d
0e
0f
0g
0h
1i
0j
0k
0l
0m
0n
0o
0p
0q
1r
0s
0t
0u
0v
1w
0x
0y
0z
0{
1|
0}
0~
0!!
0"!
1#!
0$!
0%!
1&!
0'!
0(!
0)!
0*!
0+!
0,!
0-!
0.!
0/!
00!
01!
02!
03!
04!
05!
16!
07!
08!
09!
1:!
0;!
0<!
0=!
0>!
0?!
0@!
0A!
0B!
0C!
1D!
0E!
1F!
0G!
1H!
0I!
0J!
0K!
0L!
0M!
0N!
0O!
0P!
0Q!
0R!
0S!
0T!
1U!
0V!
0W!
0X!
0Y!
0Z!
0[!
0\!
0]!
0^!
0_!
0`!
0a!
0b!
0c!
0d!
0e!
0f!
0g!
0h!
1i!
0j!
0k!
0l!
0m!
0n!
0o!
0p!
0q!
0r!
0s!
1t!
0u!
0v!
0w!
1x!
0y!
0z!
0$"
0#"
0""
0!"
0~!
0}!
0|!
0{!
0("
0'"
0&"
0%"
0,"
0+"
0*"
0)"
00"
0/"
0."
0-"
02"
01"
z5"
04"
z3"
08"
07"
06"
0:"
09"
0S"
0R"
0Q"
0P"
zO"
zN"
zM"
zL"
zK"
zJ"
zI"
zH"
zG"
zF"
zE"
zD"
zC"
zB"
zA"
z@"
z?"
z>"
z="
z<"
z;"
0U"
0T"
0]"
0\"
0["
0Z"
0Y"
0X"
0W"
1V"
$end
#5000
1!
1<
1)"
1{!
12"
1z!
0x!
11
1)
#10000
1&
0!
1D
0<
0[
0X
0E
#15000
1!
1<
0)"
1*"
1L
1J
11"
02"
1Z
1G
0z!
1x!
01
12
#20000
0!
0<
1S
1S"
#25000
1!
1<
0*"
1+"
1T"
12"
1p!
1\
1^
1w!
1o!
1`!
1[!
1S!
02
13
#30000
0!
0<
1R"
0S"
#35000
1!
1<
0+"
1,"
01"
02"
0w!
0o!
0`!
0[!
0S!
03
14
#40000
0!
0<
1S"
1P
#45000
1!
1<
1)"
0,"
12"
1z!
0x!
11
04
#50000
0&
0!
0D
0<
1[
1X
1E
0Z
1Q"
0R"
0S"
0P
#55000
1!
1<
0)"
1*"
0L
1K
11"
02"
0z!
1x!
01
12
#60000
0!
0<
1S"
#65000
1!
1<
0*"
1+"
12"
1w!
1o!
1`!
1[!
1S!
02
13
#70000
0!
0<
1R"
0S"
#75000
1!
1<
0+"
1,"
01"
02"
0w!
0o!
0`!
0[!
0S!
03
14
#80000
1%
0!
1F
0<
0[
0X
1W
1S"
1P
#85000
1!
1<
1)"
0,"
1M
0K
12"
1Y
1z!
0x!
11
04
#90000
0!
0<
1P"
0Q"
0R"
0S"
0P
#95000
1!
1<
0)"
1*"
1N
11"
02"
0c
1U
0O
0z!
1x!
01
12
1'"
1`
1q
0r
#100000
0!
0<
1R
0P"
1O
#105000
1!
1<
0*"
1+"
1e
1d
12"
1E!
1@!
1w!
1o!
1`!
1[!
1S!
02
13
1y!
1r!
1^!
1Y!
1W!
1R!
1P!
1G!
0V"
1W"
1_!
1Z!
1["
1\"
1I!
1Z"
1]"
1M!
#110000
0!
0<
1S"
#115000
1!
1<
0+"
1,"
0{!
01"
02"
0w!
0o!
0`!
0M!
03
14
0)
#120000
0!
0<
1R"
0S"
#125000
1!
1<
1)"
0,"
1""
1#"
12"
0x!
1M!
11
04
1.
1/
#128000
0%
0F
1[
1X
0W
0Y
#130000
0!
0<
1S"
1P
#135000
1!
1<
0)"
1*"
1|!
1!"
1$"
0M
0J
11"
02"
1x!
0[!
0S!
0M!
01
12
1*
1-
10
#140000
0!
0<
1Q"
0R"
0S"
0P
#145000
1!
1<
0*"
1+"
0|!
0!"
0""
0#"
0$"
12"
1w!
1o!
1`!
1[!
1S!
1M!
02
13
0*
0-
0.
0/
00
#150000
0!
0<
1S"
#155000
1!
1<
0+"
1,"
01"
02"
0w!
0o!
0`!
0M!
03
14
#160000
0!
0<
1R"
0S"
#165000
1!
1<
1)"
0,"
1""
1#"
12"
0x!
1M!
11
04
1.
1/
#170000
0!
0<
1S"
1P
#175000
1!
1<
0)"
1*"
1|!
1!"
1$"
11"
02"
1x!
0[!
0S!
0M!
01
12
1*
1-
10
#180000
b10 "
0!
17"
0<
1.!
1?
12!
1@
1{
1P"
0Q"
0R"
0S"
0P
#185000
1!
1<
0*"
1+"
0|!
0!"
0""
0#"
0$"
12"
1w!
1o!
1`!
1[!
1S!
1M!
02
13
0*
0-
0.
0/
00
#190000
0!
0<
1S"
#195000
1!
1<
0+"
1,"
01"
02"
0w!
0o!
0`!
0M!
03
14
#200000
1#
0!
1=
0<
1/"
1R"
0S"
1c!
1Q!
14!
0#!
#205000
1!
1<
1)"
0,"
1""
1#"
1$!
17!
12"
1*!
1%!
11!
1y
0q
0x!
1M!
1x
11
04
1.
1/
1+!
0&!
1-!
1r
13!
02!
0{
#210000
0#
0!
0=
0<
1S"
1P
#215000
1!
1<
0)"
1*"
1|!
1!"
1$"
15!
07!
11"
02"
06!
0*!
0%!
01!
0y
1q
1x!
0[!
0S!
0M!
0x
01
12
1*
1-
10
1x
0q
0+!
1&!
1{
0-!
0r
03!
12!
13!
1r
#220000
0!
0<
1Q"
0R"
0S"
0P
#225000
1!
1<
0*"
1+"
0|!
0!"
0""
0#"
0$"
12"
1w!
1o!
1`!
1[!
1S!
1M!
02
13
0*
0-
0.
0/
00
#230000
b0 "
0!
07"
0<
0.!
0?
03!
02!
0@
0{
1S"
#235000
1!
1<
0+"
1,"
01"
02"
0w!
0o!
0`!
0M!
03
14
#240000
0!
0<
1R"
0S"
#245000
1!
1<
1)"
0,"
1""
1#"
12"
0x!
1M!
11
04
1.
1/
#250000
0!
0<
1S"
1Q
1P
1T
0O
#255000
1!
1<
0)"
1*"
1|!
1!"
1$"
11"
02"
1x!
0[!
0S!
0M!
01
12
1*
1-
10
#260000
0!
0<
1V
0P"
0Q"
0R"
0S"
0Q
0P
0T
1O
#265000
1!
1<
0*"
1+"
0|!
0!"
0""
0#"
0$"
1f
0e
12"
1K!
14"
0E!
0@!
1>!
1w!
1o!
1`!
1[!
1S!
1M!
02
13
0*
0-
0.
0/
00
1L!
0x!
1q!
1j!
1d!
0^!
0Y!
0R!
1n!
0r!
1f!
1a!
1T!
1N!
0G!
1B!
1r!
1e!
0\"
0W"
1l!
0d!
1W"
1Y"
1X"
0e!
1h!
0Y"
0h!
#270000
0!
0<
0V
1S"
#275000
1!
1<
0+"
1,"
01"
02"
0w!
1h!
1C!
03
14
#280000
0!
0<
1R"
0S"
#285000
1!
1<
1)"
0,"
1}!
1~!
1!"
1""
1#"
1$"
12"
0h!
0`!
0S!
0C!
11
04
1+
1,
1-
1.
1/
10
#290000
0!
0<
1S"
1P
#295000
1!
1<
0)"
1*"
1|!
0~!
0#"
11"
02"
1x!
0o!
1`!
0[!
1h!
1C!
01
12
1*
0,
0/
#300000
0!
0<
1Q"
0R"
0S"
0P
#305000
1!
1<
0*"
1+"
1{!
0|!
1~!
1#"
12"
0x!
1w!
1o!
0h!
1[!
1S!
0C!
02
13
1)
0*
1,
1/
#310000
0!
0<
1S"
#315000
1!
1<
0+"
1,"
0{!
0}!
0~!
0!"
0""
0#"
0$"
01"
02"
0w!
1h!
1C!
03
14
0)
0+
0,
0-
0.
0/
00
#320000
0!
0<
1R"
0S"
#325000
1!
1<
1)"
0,"
1}!
1~!
1!"
1""
1#"
1$"
12"
0h!
0`!
0S!
0C!
11
04
1+
1,
1-
1.
1/
10
#330000
0!
0<
1S"
1P
#335000
1!
1<
0)"
1*"
1|!
0~!
0#"
11"
02"
1x!
0o!
1`!
0[!
1h!
1C!
01
12
1*
0,
0/
#340000
0!
0<
1P"
0Q"
0R"
0S"
0P
#345000
1!
1<
0*"
1+"
1{!
0|!
1~!
1#"
12"
0x!
1w!
1o!
0h!
1[!
1S!
0C!
02
13
1)
0*
1,
1/
#350000
0!
0<
1S"
#355000
1!
1<
0+"
1,"
0{!
0}!
0~!
0!"
0""
0#"
0$"
01"
02"
0w!
1h!
1C!
03
14
0)
0+
0,
0-
0.
0/
00
#360000
0!
0<
1R"
0S"
#365000
1!
1<
1)"
0,"
1}!
1~!
1!"
1""
1#"
1$"
12"
0h!
0`!
0S!
0C!
11
04
1+
1,
1-
1.
1/
10
#370000
0!
0<
1S"
1P
#375000
1!
1<
0)"
1*"
1|!
0~!
0#"
11"
02"
1x!
0o!
1`!
0[!
1h!
1C!
01
12
1*
0,
0/
#380000
0!
0<
1Q"
0R"
0S"
0P
#385000
1!
1<
0*"
1+"
1{!
0|!
1~!
1#"
12"
0x!
1w!
1o!
0h!
1[!
1S!
0C!
02
13
1)
0*
1,
1/
#390000
0!
0<
1S"
#395000
1!
1<
0+"
1,"
0{!
0}!
0~!
0!"
0""
0#"
0$"
01"
02"
0w!
1h!
1C!
03
14
0)
0+
0,
0-
0.
0/
00
#400000
0!
0<
1R"
0S"
#405000
1!
1<
1)"
0,"
1}!
1~!
1!"
1""
1#"
1$"
12"
0h!
0`!
0S!
0C!
11
04
1+
1,
1-
1.
1/
10
#410000
0!
0<
1S"
1Q
1P
1T
0O
#415000
1!
1<
0)"
1*"
1|!
0~!
0#"
11"
02"
1x!
0o!
1`!
0[!
1h!
1C!
01
12
1*
0,
0/
#420000
0!
0<
1V
0P"
0Q"
0R"
0S"
0Q
0P
0T
1O
#425000
1!
1<
0*"
1+"
1{!
0|!
1~!
1#"
1s
0f
12"
1E!
1@!
1?!
0x!
1w!
1o!
0h!
1[!
1S!
0C!
02
13
1)
0*
1,
1/
1u!
1s!
0a!
1^!
1\!
1Y!
1R!
1G!
1C!
1v!
1d!
1\"
1e!
1Y"
1h!
#430000
0!
0<
0V
1S"
#435000
1!
1<
0+"
1,"
0{!
1|!
1t
01"
02"
1v
03
14
0)
1*
15
#440000
0!
0<
1R"
0S"
#445000
1!
1<
1)"
0,"
12"
0w!
0`!
11
04
#450000
0!
0<
1S"
1P
#455000
1!
1<
0)"
1*"
11"
02"
1x!
1w!
0o!
1`!
0[!
0S!
01
12
#460000
0!
0<
1Q"
0R"
0S"
0P
#465000
1!
1<
0*"
1+"
12"
0x!
1o!
1[!
1S!
02
13
#470000
0!
0<
1S"
#475000
1!
1<
0+"
1,"
01"
02"
03
14
#480000
0!
0<
1R"
0S"
#485000
1!
1<
1)"
0,"
12"
0w!
0`!
11
04
#490000
0!
0<
1S"
1P
#495000
1!
1<
0)"
1*"
11"
02"
1x!
1w!
0o!
1`!
0[!
0S!
01
12
#500000
0!
0<
1P"
0Q"
0R"
0S"
0P
#505000
1!
1<
0*"
1+"
12"
0x!
1o!
1[!
1S!
02
13
#510000
0!
0<
1S"
#515000
1!
1<
0+"
1,"
01"
02"
03
14
#520000
0!
0<
1R"
0S"
#525000
1!
1<
1)"
0,"
12"
0w!
0`!
11
04
#530000
0!
0<
1S"
1P
#535000
1!
1<
0)"
1*"
11"
02"
1x!
1w!
0o!
1`!
0[!
0S!
01
12
#540000
0!
0<
1Q"
0R"
0S"
0P
#545000
1!
1<
0*"
1+"
12"
0x!
1o!
1[!
1S!
02
13
#550000
0!
0<
1S"
#555000
1!
1<
0+"
1,"
01"
02"
03
14
#560000
0!
0<
1R"
0S"
#565000
1!
1<
1)"
0,"
12"
0w!
0`!
11
04
#570000
0!
0<
1S"
1Q
1P
1T
0O
#575000
1!
1<
0)"
1*"
11"
02"
1x!
1w!
0o!
1`!
0[!
0S!
01
12
#580000
0!
0<
1V
0P"
0Q"
0R"
0S"
1u
0Q
0P
0w
0T
1O
1I
0N
05!
0$!
0t
0s
0d
0T"
0V
0S
0R
1c
0U
16!
0v
0u
0p!
0K!
04"
0>!
0E!
0@!
0?!
0G!
0\
0^
0G
05
0x
1q
1w
0L!
0u!
0q!
0j!
0d!
0^!
0Y!
0R!
0P!
0I!
0s!
0n!
0f!
0\!
0W!
0T!
0N!
0B!
0y!
0r
0I
0`!
0M!
0v!
0r!
0e!
0_!
0Z!
0\"
0]"
0w!
0l!
0h!
0["
0C!
1V"
0W"
0Y"
0Z"
0X"
#585000
1!
1<
0*"
1+"
1{!
0|!
0}!
0~!
0!"
0""
0#"
0$"
12"
1w!
1o!
1`!
1[!
1S!
02
13
1)
0*
0+
0,
0-
0.
0/
00
#590000
0!
0<
#595000
1!
1<
0+"
1,"
01"
02"
0w!
0o!
0`!
0[!
0S!
03
14
#600000
0!
0<
#605000
1!
1<
1)"
0,"
12"
1z!
0x!
11
04
#610000
0!
0<
#615000
1!
1<
0)"
1*"
11"
02"
0z!
1x!
01
12
#620000
0!
0<
#625000
1!
1<
0*"
1+"
12"
1w!
1o!
1`!
1[!
1S!
02
13
#630000
0!
0<
#635000
1!
1<
0+"
1,"
01"
02"
0w!
0o!
0`!
0[!
0S!
03
14
#640000
0!
0<
#645000
1!
1<
1)"
0,"
12"
1z!
0x!
11
04
#650000
0!
0<
#655000
1!
1<
0)"
1*"
11"
02"
0z!
1x!
01
12
#660000
0!
0<
#665000
1!
1<
0*"
1+"
12"
1w!
1o!
1`!
1[!
1S!
02
13
#670000
0!
0<
#675000
1!
1<
0+"
1,"
01"
02"
0w!
0o!
0`!
0[!
0S!
03
14
#680000
0!
0<
#685000
1!
1<
1)"
0,"
12"
1z!
0x!
11
04
#690000
0!
0<
#695000
1!
1<
0)"
1*"
11"
02"
0z!
1x!
01
12
#700000
0!
0<
#705000
1!
1<
0*"
1+"
12"
1w!
1o!
1`!
1[!
1S!
02
13
#710000
0!
0<
#715000
1!
1<
0+"
1,"
01"
02"
0w!
0o!
0`!
0[!
0S!
03
14
#720000
0!
0<
#725000
1!
1<
1)"
0,"
12"
1z!
0x!
11
04
#730000
0!
0<
#735000
1!
1<
0)"
1*"
11"
02"
0z!
1x!
01
12
#740000
0!
0<
#745000
1!
1<
0*"
1+"
12"
1w!
1o!
1`!
1[!
1S!
02
13
#750000
0!
0<
#755000
1!
1<
0+"
1,"
01"
02"
0w!
0o!
0`!
0[!
0S!
03
14
#760000
0!
0<
#765000
1!
1<
1)"
0,"
12"
1z!
0x!
11
04
#770000
0!
0<
#775000
1!
1<
0)"
1*"
11"
02"
0z!
1x!
01
12
#780000
0!
0<
#785000
1!
1<
0*"
1+"
12"
1w!
1o!
1`!
1[!
1S!
02
13
#790000
0!
0<
#795000
1!
1<
0+"
1,"
01"
02"
0w!
0o!
0`!
0[!
0S!
03
14
#800000
0!
0<
#805000
1!
1<
1)"
0,"
12"
1z!
0x!
11
04
#810000
0!
0<
#815000
1!
1<
0)"
1*"
11"
02"
0z!
1x!
01
12
#820000
0!
0<
#825000
1!
1<
0*"
1+"
12"
1w!
1o!
1`!
1[!
1S!
02
13
#830000
0!
0<
#835000
1!
1<
0+"
1,"
01"
02"
0w!
0o!
0`!
0[!
0S!
03
14
#840000
0!
0<
#845000
1!
1<
1)"
0,"
12"
1z!
0x!
11
04
#850000
0!
0<
#855000
1!
1<
0)"
1*"
11"
02"
0z!
1x!
01
12
#860000
0!
0<
#865000
1!
1<
0*"
1+"
12"
1w!
1o!
1`!
1[!
1S!
02
13
#870000
0!
0<
#875000
1!
1<
0+"
1,"
01"
02"
0w!
0o!
0`!
0[!
0S!
03
14
#880000
0!
0<
#885000
1!
1<
1)"
0,"
12"
1z!
0x!
11
04
#890000
0!
0<
#895000
1!
1<
0)"
1*"
11"
02"
0z!
1x!
01
12
#900000
0!
0<
#905000
1!
1<
0*"
1+"
12"
1w!
1o!
1`!
1[!
1S!
02
13
#910000
0!
0<
#915000
1!
1<
0+"
1,"
01"
02"
0w!
0o!
0`!
0[!
0S!
03
14
#920000
0!
0<
#925000
1!
1<
1)"
0,"
12"
1z!
0x!
11
04
#930000
0!
0<
#935000
1!
1<
0)"
1*"
11"
02"
0z!
1x!
01
12
#940000
0!
0<
#945000
1!
1<
0*"
1+"
12"
1w!
1o!
1`!
1[!
1S!
02
13
#950000
0!
0<
#955000
1!
1<
0+"
1,"
01"
02"
0w!
0o!
0`!
0[!
0S!
03
14
#960000
0!
0<
#965000
1!
1<
1)"
0,"
12"
1z!
0x!
11
04
#970000
0!
0<
#975000
1!
1<
0)"
1*"
11"
02"
0z!
1x!
01
12
#980000
0!
0<
#985000
1!
1<
0*"
1+"
12"
1w!
1o!
1`!
1[!
1S!
02
13
#990000
0!
0<
#995000
1!
1<
0+"
1,"
01"
02"
0w!
0o!
0`!
0[!
0S!
03
14
