PBLs/TEC498 - MI - Projeto de Circuitos Digitais/Problema 3/Códigos/PBL3.Circuito/simulation/qsim/testando.msim.vcd
$comment
	File created using the following command:
		vcd file testando.msim.vcd -direction
$end
$date
	Mon Jun 21 19:32:43 2021
$end
$version
	ModelSim Version 2020.1
$end
$timescale
	1ps
$end

$scope module maquina4_vlg_vec_tst $end
$var reg 1 ! clk $end
$var reg 1 " id_typed $end
$var reg 1 # id_valid $end
$var reg 1 $ rst $end
$var reg 1 % time_max_exb $end
$var reg 4 & val_product [3:0] $end
$var reg 4 ' val_tot [3:0] $end
$var wire 1 ( back_money $end
$var wire 1 ) release_product $end
$var wire 1 * state_now [0] $end
$var wire 1 + state_now [1] $end
$var wire 1 , state_now [2] $end

$scope module i1 $end
$var wire 1 - gnd $end
$var wire 1 . vcc $end
$var wire 1 / unknown $end
$var tri1 1 0 devclrn $end
$var tri1 1 1 devpor $end
$var tri1 1 2 devoe $end
$var wire 1 3 clk~combout $end
$var wire 1 4 Selector3~0_combout $end
$var wire 1 5 id_valid~combout $end
$var wire 1 6 id_typed~combout $end
$var wire 1 7 time_max_exb~combout $end
$var wire 1 8 Selector3~1_combout $end
$var wire 1 9 rst~combout $end
$var wire 1 : state.all_ok~regout $end
$var wire 1 ; state.error1~regout $end
$var wire 1 < Selector0~0_combout $end
$var wire 1 = state.zzz~regout $end
$var wire 1 > state.validate_id~regout $end
$var wire 1 ? state.validate_coin~regout $end
$var wire 1 @ state.error2~regout $end
$var wire 1 A back_money~reg0_regout $end
$var wire 1 B release_product~reg0_regout $end
$var wire 1 C WideOr5~0_combout $end
$var wire 1 D state_now~0_combout $end
$var wire 1 E state_now~1_combout $end
$var wire 1 F val_product~combout [3] $end
$var wire 1 G val_product~combout [2] $end
$var wire 1 H val_product~combout [1] $end
$var wire 1 I val_product~combout [0] $end
$var wire 1 J val_tot~combout [3] $end
$var wire 1 K val_tot~combout [2] $end
$var wire 1 L val_tot~combout [1] $end
$var wire 1 M val_tot~combout [0] $end
$upscope $end
$upscope $end
$enddefinitions $end
#0
$dumpvars
0!
0"
0#
1$
0%
b1000 &
b1000 '
0(
0)
0,
0+
0*
0-
1.
x/
10
11
12
03
14
05
06
07
18
19
0:
0;
0<
0=
0>
0?
0@
0A
0B
1C
0D
0E
0I
0H
0G
1F
0M
0L
0K
1J
$end
#5000
1!
13
#10000
0!
03
#15000
1!
13
#20000
0!
03
#25000
1!
13
#30000
0!
03
#35000
1!
13
#40000
0!
03
#45000
1!
13
#50000
0!
03
#55000
1!
13
#60000
1#
1%
0!
15
17
03
#65000
1!
13
#70000
0!
03
#75000
1!
13
#80000
0#
0%
0!
05
07
03
#85000
1!
13
#90000
0!
03
#95000
1!
13
#100000
1%
0!
17
03
#105000
1!
13
#110000
0!
03
#115000
1!
13
#120000
0%
0!
07
03
#125000
1!
13
#130000
0!
03
#135000
1!
13
#140000
0!
03
#145000
1!
13
#150000
0!
03
#155000
1!
13
#160000
0!
03
#165000
1!
13
#170000
0!
03
#175000
1!
13
#180000
0!
03
#185000
1!
13
#190000
0!
03
#195000
1!
13
#200000
0!
03
#205000
1!
13
#210000
0!
03
#215000
1!
13
#220000
0!
03
#225000
1!
13
#230000
0!
03
#235000
1!
13
#240000
0!
03
#245000
1!
13
#250000
0!
03
#255000
1!
13
#260000
0!
03
#265000
1!
13
#270000
0!
03
#275000
1!
13
#280000
0!
03
#285000
1!
13
#290000
0!
03
#295000
1!
13
#300000
0!
03
#305000
1!
13
#310000
0!
03
#315000
1!
13
#320000
0!
03
#325000
1!
13
#330000
0!
03
#335000
1!
13
#340000
0!
03
#345000
1!
13
#350000
0!
03
#355000
1!
13
#360000
0!
03
#365000
1!
13
#370000
0!
03
#375000
1!
13
#380000
0!
03
#385000
1!
13
#390000
0!
03
#395000
1!
13
#400000
0!
03
#405000
1!
13
#410000
0!
03
#415000
1!
13
#420000
0!
03
#425000
1!
13
#430000
0!
03
#435000
1!
13
#440000
0!
03
#445000
1!
13
#450000
0!
03
#455000
1!
13
#460000
0!
03
#465000
1!
13
#470000
0!
03
#475000
1!
13
#480000
0!
03
#485000
1!
13
#490000
0!
03
#495000
1!
13
#500000
0!
03
#505000
1!
13
#510000
0!
03
#515000
1!
13
#520000
0!
03
#525000
1!
13
#530000
0!
03
#535000
1!
13
#540000
0!
03
#545000
1!
13
#550000
0!
03
#555000
1!
13
#560000
0!
03
#565000
1!
13
#570000
0!
03
#575000
1!
13
#580000
0!
03
#585000
1!
13
#590000
0!
03
#595000
1!
13
#600000
0!
03
#605000
1!
13
#610000
0!
03
#615000
1!
13
#620000
0!
03
#625000
1!
13
#630000
0!
03
#635000
1!
13
#640000
0!
03
#645000
1!
13
#650000
0!
03
#655000
1!
13
#660000
0!
03
#665000
1!
13
#670000
0!
03
#675000
1!
13
#680000
0!
03
#685000
1!
13
#690000
0!
03
#695000
1!
13
#700000
0!
03
#705000
1!
13
#710000
0!
03
#715000
1!
13
#720000
0!
03
#725000
1!
13
#730000
0!
03
#735000
1!
13
#740000
0!
03
#745000
1!
13
#750000
0!
03
#755000
1!
13
#760000
0!
03
#765000
1!
13
#770000
0!
03
#775000
1!
13
#780000
0!
03
#785000
1!
13
#790000
0!
03
#795000
1!
13
#800000
0!
03
#805000
1!
13
#810000
0!
03
#815000
1!
13
#820000
0!
03
#825000
1!
13
#830000
0!
03
#835000
1!
13
#840000
0!
03
#845000
1!
13
#850000
0!
03
#855000
1!
13
#860000
0!
03
#865000
1!
13
#870000
0!
03
#875000
1!
13
#880000
0!
03
#885000
1!
13
#890000
0!
03
#895000
1!
13
#900000
0!
03
#905000
1!
13
#910000
0!
03
#915000
1!
13
#920000
0!
03
#925000
1!
13
#930000
0!
03
#935000
1!
13
#940000
0!
03
#945000
1!
13
#950000
0!
03
#955000
1!
13
#960000
0!
03
#965000
1!
13
#970000
0!
03
#975000
1!
13
#980000
0!
03
#985000
1!
13
#990000
0!
03
#995000
1!
13
